%YAML 1.1
%TAG !u! tag:unity3d.com,2011:
--- !u!114 &11400000
MonoBehaviour:
  m_ObjectHideFlags: 0
  m_CorrespondingSourceObject: {fileID: 0}
  m_PrefabInstance: {fileID: 0}
  m_PrefabAsset: {fileID: 0}
  m_GameObject: {fileID: 0}
  m_Enabled: 1
  m_EditorHideFlags: 0
  m_Script: {fileID: 11500000, guid: ade3988c92553784bac57a94846f9dda, type: 3}
  m_Name: Colonist_Jobs
  m_EditorClassIdentifier: 
  GatherJobs: 0
  BuildJobs: 0
  EnterBuildingJobs: 1
  AttackJobs: 0
